week1/kyun/test_kyun.vcd
$date
	Mon Feb 20 20:17:49 2023
$end
$version
	Icarus Verilog
$end
$timescale
	1ps
$end
$scope module I2C_Master_TB $end
$var wire 1 ! SDA_out $end
$var wire 1 " SCL_out $end
$var reg 8 # Data_in [7:0] $end
$var reg 7 $ Dev_addr [6:0] $end
$var reg 1 % RW_sel $end
$var reg 8 & Reg_addr [7:0] $end
$var reg 1 ' SDA_in $end
$var reg 1 ( clk $end
$var reg 1 ) rst $end
$scope module u0 $end
$var wire 8 * Data_in [7:0] $end
$var wire 7 + Dev_addr [6:0] $end
$var wire 1 % RW_sel $end
$var wire 8 , Reg_addr [7:0] $end
$var wire 1 - SCL $end
$var wire 1 ' SDA_in $end
$var wire 1 ( clk $end
$var wire 1 ) rst $end
$var wire 1 . SDA $end
$var reg 1 " SCL_out $end
$var reg 1 ! SDA_out $end
$var reg 4 / bit_count [3:0] $end
$var reg 8 0 count [7:0] $end
$var reg 4 1 next_state [3:0] $end
$var reg 4 2 state [3:0] $end
$upscope $end
$upscope $end
$enddefinitions $end
#0
$dumpvars
b0 2
b0 1
bx 0
b0 /
x.
x-
b11010101 ,
b1010101 +
b1010101 *
0)
0(
0'
b11010101 &
1%
b1010101 $
b1010101 #
x"
x!
$end
#1000
1.
1!
b111110 0
1-
1"
1(
#2000
0(
#3000
1(
#4000
0(
#5000
1(
#6000
0(
#7000
1(
#8000
0(
#9000
b1 2
b111101 0
b10 1
1(
1)
#10000
0(
#11000
b111100 0
b111 /
0.
0!
b10 2
1(
#12000
0(
#13000
1.
1!
b111011 0
0-
0"
b110 /
1(
#14000
0(
#15000
1-
1"
b111010 0
0.
0!
b101 /
1(
#16000
0(
#17000
1.
1!
b111001 0
0-
0"
b100 /
1(
#18000
0(
#19000
1-
1"
b111000 0
0.
0!
b11 /
1(
#20000
0(
#21000
1.
1!
b110111 0
0-
0"
b10 /
1(
#22000
0(
#23000
1-
1"
b110110 0
0.
0!
b1 /
1(
#24000
0(
#25000
1.
1!
b110101 0
0-
0"
b0 /
1(
#26000
0(
#27000
1-
1"
b110100 0
b1111 /
1(
#28000
0(
#29000
0.
0!
b110011 0
0-
0"
b1110 /
1(
#30000
0(
#31000
1-
1"
b110010 0
b1101 /
1(
#32000
0(
#33000
b110001 0
0-
0"
b1100 /
1(
#34000
0(
#35000
1-
1"
b110000 0
b1011 /
1(
#36000
0(
#37000
b101111 0
0-
0"
b1010 /
1(
#38000
0(
#39000
1-
1"
b101110 0
b1001 /
1(
#40000
0(
#41000
b101101 0
0-
0"
b1000 /
1(
#42000
0(
#43000
1-
1"
b101100 0
b111 /
1(
#44000
0(
#45000
1.
1!
b101011 0
0-
0"
b110 /
1(
#46000
0(
#47000
b11 1
1-
1"
b101010 0
0.
0!
b101 /
1(
#48000
0(
#49000
b0 1
b11 2
1.
1!
b101001 0
0-
0"
b100 /
1(
#50000
0(
#51000
b1 1
1-
1"
b101000 0
0.
0!
b0 2
1(
#52000
0(
#53000
b0 1
b1 2
b0 /
1.
1!
b100111 0
1(
#54000
0(
#55000
b1 1
b100110 0
b111 /
0.
0!
b0 2
1(
#56000
0(
#57000
b0 1
b1 2
b0 /
1.
1!
b100101 0
1(
#58000
0(
#59000
b1 1
b100100 0
b111 /
0.
0!
b0 2
1(
#60000
0(
#61000
b0 1
b1 2
b0 /
1.
1!
b100011 0
1(
#62000
0(
#63000
b1 1
b100010 0
b111 /
0.
0!
b0 2
1(
#64000
0(
#65000
b0 1
b1 2
b0 /
1.
1!
b100001 0
1(
#66000
0(
#67000
b1 1
b100000 0
b111 /
0.
0!
b0 2
1(
#68000
0(
#69000
b0 1
b1 2
b0 /
1.
1!
b11111 0
1(
#70000
0(
#71000
b1 1
b11110 0
b111 /
0.
0!
b0 2
1(
#72000
0(
#73000
b0 1
b1 2
b0 /
1.
1!
b11101 0
1(
#74000
0(
#75000
b1 1
b11100 0
b111 /
0.
0!
b0 2
1(
#76000
0(
#77000
b0 1
b1 2
b0 /
1.
1!
b11011 0
1(
#78000
0(
#79000
b1 1
b11010 0
b111 /
0.
0!
b0 2
1(
#80000
0(
#81000
b0 1
b1 2
b0 /
1.
1!
b11001 0
1(
#82000
0(
#83000
b1 1
b11000 0
b111 /
0.
0!
b0 2
1(
#84000
0(
#85000
b0 1
b1 2
b0 /
1.
1!
b10111 0
1(
#86000
0(
#87000
b1 1
b10110 0
b111 /
0.
0!
b0 2
1(
#88000
0(
#89000
b0 1
b1 2
b0 /
1.
1!
b10101 0
1(
#90000
0(
#91000
b1 1
b10100 0
b111 /
0.
0!
b0 2
1(
#92000
0(
#93000
b0 1
b1 2
b0 /
1.
1!
b10011 0
1(
#94000
0(
#95000
b1 1
b10010 0
b111 /
0.
0!
b0 2
1(
#96000
0(
#97000
b0 1
b1 2
b0 /
1.
1!
b10001 0
1(
#98000
0(
#99000
b1 1
b10000 0
b111 /
0.
0!
b0 2
1(
#100000
0(
#101000
b0 1
b1 2
b0 /
1.
1!
b1111 0
1(
#102000
0(
#103000
b1 1
b1110 0
b111 /
0.
0!
b0 2
1(
#104000
0(
#105000
b0 1
b1 2
b0 /
1.
1!
b1101 0
1(
#106000
0(
#107000
b1 1
b1100 0
b111 /
0.
0!
b0 2
1(
#108000
0(
#109000
b0 1
b1 2
b0 /
1.
1!
b1011 0
1(
#110000
0(
#111000
b1 1
b1010 0
b111 /
0.
0!
b0 2
1(
#112000
0(
#113000
b0 1
b1 2
b0 /
1.
1!
b1001 0
1(
#114000
0(
#115000
b1 1
b1000 0
b111 /
0.
0!
b0 2
1(
#116000
0(
#117000
b0 1
b1 2
b0 /
1.
1!
b111 0
1(
#118000
0(
#119000
b1 1
b110 0
b111 /
0.
0!
b0 2
1(
#120000
0(
#121000
b0 1
b1 2
b0 /
1.
1!
b101 0
1(
#122000
0(
#123000
b1 1
b100 0
b111 /
0.
0!
b0 2
1(
#124000
0(
#125000
b0 1
b1 2
b0 /
1.
1!
b11 0
1(
#126000
0(
#127000
b1 1
b10 0
b111 /
0.
0!
b0 2
1(
#128000
0(
#129000
b0 1
b1 2
b0 /
1.
1!
b1 0
1(
#130000
0(
#131000
b1 1
b0 0
b111 /
0.
0!
b0 2
1(
#132000
0(
#133000
b10 1
b1 2
b0 /
1.
1!
b111110 0
1(
#134000
0(
#135000
b111101 0
b111 /
0.
0!
b10 2
1(
#136000
0(
#137000
1.
1!
b111100 0
0-
0"
b110 /
1(
#138000
0(
#139000
1-
1"
b111011 0
0.
0!
b101 /
1(
#140000
0(
#141000
1.
1!
b111010 0
0-
0"
b100 /
1(
#142000
0(
#143000
1-
1"
b111001 0
0.
0!
b11 /
1(
#144000
0(
#145000
1.
1!
b111000 0
0-
0"
b10 /
1(
#146000
0(
#147000
1-
1"
b110111 0
0.
0!
b1 /
1(
#148000
0(
#149000
1.
1!
b110110 0
0-
0"
b0 /
1(
#150000
0(
#151000
1-
1"
b110101 0
b1111 /
1(
#152000
0(
#153000
0.
0!
b110100 0
0-
0"
b1110 /
1(
#154000
0(
#155000
1-
1"
b110011 0
b1101 /
1(
#156000
0(
#157000
b110010 0
0-
0"
b1100 /
1(
#158000
0(
#159000
1-
1"
b110001 0
b1011 /
1(
#160000
0(
#161000
b110000 0
0-
0"
b1010 /
1(
#162000
0(
#163000
1-
1"
b101111 0
b1001 /
1(
#164000
0(
#165000
b101110 0
0-
0"
b1000 /
1(
#166000
0(
#167000
1-
1"
b101101 0
b111 /
1(
#168000
0(
#169000
1.
1!
b101100 0
0-
0"
b110 /
1(
#170000
0(
#171000
1-
1"
b101011 0
0.
0!
b101 /
1(
#172000
0(
#173000
b11 1
1.
1!
b101010 0
0-
0"
b100 /
1(
#174000
0(
#175000
b0 1
1-
1"
b101001 0
0.
0!
b11 2
b11 /
1(
#176000
0(
#177000
b1 1
b0 2
b101000 0
0-
0"
1(
#178000
0(
#179000
b0 1
b100111 0
b0 /
1.
1!
1-
1"
b1 2
1(
#180000
0(
#181000
b1 1
b0 2
b111 /
0.
0!
b100110 0
1(
#182000
0(
#183000
b0 1
b100101 0
b0 /
1.
1!
b1 2
1(
#184000
0(
#185000
b1 1
b0 2
b111 /
0.
0!
b100100 0
1(
#186000
0(
#187000
b0 1
b100011 0
b0 /
1.
1!
b1 2
1(
#188000
0(
#189000
b1 1
b0 2
b111 /
0.
0!
b100010 0
1(
#190000
0(
#191000
b0 1
b100001 0
b0 /
1.
1!
b1 2
1(
#192000
0(
#193000
b1 1
b0 2
b111 /
0.
0!
b100000 0
1(
#194000
0(
#195000
b0 1
b11111 0
b0 /
1.
1!
b1 2
1(
#196000
0(
#197000
b1 1
b0 2
b111 /
0.
0!
b11110 0
1(
#198000
0(
#199000
b0 1
b11101 0
b0 /
1.
1!
b1 2
1(
#200000
0(
#201000
b1 1
b0 2
b111 /
0.
0!
b11100 0
1(
#202000
0(
#203000
b0 1
b11011 0
b0 /
1.
1!
b1 2
1(
#204000
0(
#205000
b1 1
b0 2
b111 /
0.
0!
b11010 0
1(
#206000
0(
#207000
b0 1
b11001 0
b0 /
1.
1!
b1 2
1(
#208000
0(
#209000
b1 1
b0 2
b111 /
0.
0!
b11000 0
1(
#210000
0(
#211000
b0 1
b10111 0
b0 /
1.
1!
b1 2
1(
#212000
0(
#213000
b1 1
b0 2
b111 /
0.
0!
b10110 0
1(
#214000
0(
#215000
b0 1
b10101 0
b0 /
1.
1!
b1 2
1(
#216000
0(
#217000
b1 1
b0 2
b111 /
0.
0!
b10100 0
1(
#218000
0(
#219000
b0 1
b10011 0
b0 /
1.
1!
b1 2
1(
#220000
0(
#221000
b1 1
b0 2
b111 /
0.
0!
b10010 0
1(
#222000
0(
#223000
b0 1
b10001 0
b0 /
1.
1!
b1 2
1(
#224000
0(
#225000
b1 1
b0 2
b111 /
0.
0!
b10000 0
1(
#226000
0(
#227000
b0 1
b1111 0
b0 /
1.
1!
b1 2
1(
#228000
0(
#229000
b1 1
b0 2
b111 /
0.
0!
b1110 0
1(
#230000
0(
#231000
b0 1
b1101 0
b0 /
1.
1!
b1 2
1(
#232000
0(
#233000
b1 1
b0 2
b111 /
0.
0!
b1100 0
1(
#234000
0(
#235000
b0 1
b1011 0
b0 /
1.
1!
b1 2
1(
#236000
0(
#237000
b1 1
b0 2
b111 /
0.
0!
b1010 0
1(
#238000
0(
#239000
b0 1
b1001 0
b0 /
1.
1!
b1 2
1(
#240000
0(
#241000
b1 1
b0 2
b111 /
0.
0!
b1000 0
1(
#242000
0(
#243000
b0 1
b111 0
b0 /
1.
1!
b1 2
1(
#244000
0(
#245000
b1 1
b0 2
b111 /
0.
0!
b110 0
1(
#246000
0(
#247000
b0 1
b101 0
b0 /
1.
1!
b1 2
1(
#248000
0(
#249000
b1 1
b0 2
b111 /
0.
0!
b100 0
1(
#250000
0(
#251000
b0 1
b11 0
b0 /
1.
1!
b1 2
1(
#252000
0(
#253000
b1 1
b0 2
b111 /
0.
0!
b10 0
1(
#254000
0(
#255000
b0 1
b1 0
b0 /
1.
1!
b1 2
1(
#256000
0(
#257000
b1 1
b0 2
b111 /
0.
0!
b0 0
1(
#258000
0(
#259000
b10 1
b111110 0
b0 /
1.
1!
b1 2
1(
#260000
0(
#261000
b10 2
b111 /
0.
0!
b111101 0
1(
#262000
0(
#263000
0-
0"
b111100 0
1.
1!
b110 /
1(
#264000
0(
#265000
0.
0!
b111011 0
1-
1"
b101 /
1(
#266000
0(
#267000
0-
0"
b111010 0
1.
1!
b100 /
1(
#268000
0(
#269000
0.
0!
b111001 0
1-
1"
b11 /
1(
#270000
0(
#271000
0-
0"
b111000 0
1.
1!
b10 /
1(
#272000
0(
#273000
0.
0!
b110111 0
1-
1"
b1 /
1(
#274000
0(
#275000
0-
0"
b110110 0
1.
1!
b0 /
1(
#276000
0(
#277000
b110101 0
1-
1"
b1111 /
1(
#278000
0(
#279000
0-
0"
b110100 0
0.
0!
b1110 /
1(
#280000
0(
#281000
b110011 0
1-
1"
b1101 /
1(
#282000
0(
#283000
0-
0"
b110010 0
b1100 /
1(
#284000
0(
#285000
b110001 0
1-
1"
b1011 /
1(
#286000
0(
#287000
0-
0"
b110000 0
b1010 /
1(
#288000
0(
#289000
b101111 0
1-
1"
b1001 /
1(
#290000
0(
#291000
0-
0"
b101110 0
b1000 /
1(
#292000
0(
#293000
b101101 0
1-
1"
b111 /
1(
#294000
0(
#295000
0-
0"
b101100 0
1.
1!
b110 /
1(
#296000
0(
#297000
0.
0!
b101011 0
1-
1"
b101 /
1(
#298000
0(
#299000
b11 1
0-
0"
b101010 0
1.
1!
b100 /
1(
#300000
0(
#301000
b0 1
b11 2
0.
0!
b101001 0
1-
1"
b11 /
1(
#302000
0(
#303000
b1 1
0-
0"
b101000 0
b0 2
1(
#304000
0(
#305000
b0 1
b1 2
b0 /
1.
1!
b100111 0
1-
1"
1(
#306000
0(
#307000
b1 1
b100110 0
b111 /
0.
0!
b0 2
1(
#308000
0(
#309000
b0 1
b1 2
b0 /
1.
1!
b100101 0
1(
#310000
0(
#311000
b1 1
b100100 0
b111 /
0.
0!
b0 2
1(
#312000
0(
#313000
b0 1
b1 2
b0 /
1.
1!
b100011 0
1(
#314000
0(
#315000
b1 1
b100010 0
b111 /
0.
0!
b0 2
1(
#316000
0(
#317000
b0 1
b1 2
b0 /
1.
1!
b100001 0
1(
#318000
0(
#319000
b1 1
b100000 0
b111 /
0.
0!
b0 2
1(
#320000
0(
#321000
b0 1
b1 2
b0 /
1.
1!
b11111 0
1(
#322000
0(
#323000
b1 1
b11110 0
b111 /
0.
0!
b0 2
1(
#324000
0(
#325000
b0 1
b1 2
b0 /
1.
1!
b11101 0
1(
#326000
0(
#327000
b1 1
b11100 0
b111 /
0.
0!
b0 2
1(
#328000
0(
#329000
b0 1
b1 2
b0 /
1.
1!
b11011 0
1(
#330000
0(
#331000
b1 1
b11010 0
b111 /
0.
0!
b0 2
1(
#332000
0(
#333000
b0 1
b1 2
b0 /
1.
1!
b11001 0
1(
#334000
0(
#335000
b1 1
b11000 0
b111 /
0.
0!
b0 2
1(
#336000
0(
#337000
b0 1
b1 2
b0 /
1.
1!
b10111 0
1(
#338000
0(
#339000
b1 1
b10110 0
b111 /
0.
0!
b0 2
1(
#340000
0(
#341000
b0 1
b1 2
b0 /
1.
1!
b10101 0
1(
#342000
0(
#343000
b1 1
b10100 0
b111 /
0.
0!
b0 2
1(
#344000
0(
#345000
b0 1
b1 2
b0 /
1.
1!
b10011 0
1(
#346000
0(
#347000
b1 1
b10010 0
b111 /
0.
0!
b0 2
1(
#348000
0(
#349000
b0 1
b1 2
b0 /
1.
1!
b10001 0
1(
#350000
0(
#351000
b1 1
b10000 0
b111 /
0.
0!
b0 2
1(
#352000
0(
#353000
b0 1
b1 2
b0 /
1.
1!
b1111 0
1(
#354000
0(
#355000
b1 1
b1110 0
b111 /
0.
0!
b0 2
1(
#356000
0(
#357000
b0 1
b1 2
b0 /
1.
1!
b1101 0
1(
#358000
0(
#359000
b1 1
b1100 0
b111 /
0.
0!
b0 2
1(
#360000
0(
#361000
b0 1
b1 2
b0 /
1.
1!
b1011 0
1(
#362000
0(
#363000
b1 1
b1010 0
b111 /
0.
0!
b0 2
1(
#364000
0(
#365000
b0 1
b1 2
b0 /
1.
1!
b1001 0
1(
#366000
0(
#367000
b1 1
b1000 0
b111 /
0.
0!
b0 2
1(
#368000
0(
#369000
b0 1
b1 2
b0 /
1.
1!
b111 0
1(
#370000
0(
#371000
b1 1
b110 0
b111 /
0.
0!
b0 2
1(
#372000
0(
#373000
b0 1
b1 2
b0 /
1.
1!
b101 0
1(
#374000
0(
#375000
b1 1
b100 0
b111 /
0.
0!
b0 2
1(
#376000
0(
#377000
b0 1
b1 2
b0 /
1.
1!
b11 0
1(
#378000
0(
#379000
b1 1
b10 0
b111 /
0.
0!
b0 2
1(
#380000
0(
#381000
b0 1
b1 2
b0 /
1.
1!
b1 0
1(
#382000
0(
#383000
b1 1
b0 0
b111 /
0.
0!
b0 2
1(
#384000
0(
#385000
b10 1
b1 2
b0 /
1.
1!
b111110 0
1(
#386000
0(
#387000
b111101 0
b111 /
0.
0!
b10 2
1(
#388000
0(
#389000
1.
1!
b111100 0
0-
0"
b110 /
1(
#390000
0(
#391000
1-
1"
b111011 0
0.
0!
b101 /
1(
#392000
0(
#393000
1.
1!
b111010 0
0-
0"
b100 /
1(
#394000
0(
#395000
1-
1"
b111001 0
0.
0!
b11 /
1(
#396000
0(
#397000
1.
1!
b111000 0
0-
0"
b10 /
1(
#398000
0(
#399000
1-
1"
b110111 0
0.
0!
b1 /
1(
#400000
0(
#401000
1.
1!
b110110 0
0-
0"
b0 /
1(
#402000
0(
#403000
1-
1"
b110101 0
b1111 /
1(
#404000
0(
#405000
0.
0!
b110100 0
0-
0"
b1110 /
1(
#406000
0(
#407000
1-
1"
b110011 0
b1101 /
1(
#408000
0(
#409000
b110010 0
0-
0"
b1100 /
1(
#410000
0(
#411000
1-
1"
b110001 0
b1011 /
1(
#412000
0(
#413000
b110000 0
0-
0"
b1010 /
1(
#414000
0(
#415000
1-
1"
b101111 0
b1001 /
1(
#416000
0(
#417000
b101110 0
0-
0"
b1000 /
1(
#418000
0(
#419000
1-
1"
b101101 0
b111 /
1(
#420000
0(
#421000
1.
1!
b101100 0
0-
0"
b110 /
1(
#422000
0(
#423000
1-
1"
b101011 0
0.
0!
b101 /
1(
#424000
0(
#425000
b11 1
1.
1!
b101010 0
0-
0"
b100 /
1(
#426000
0(
#427000
b0 1
1-
1"
b101001 0
0.
0!
b11 2
b11 /
1(
#428000
0(
#429000
b1 1
b0 2
b101000 0
0-
0"
1(
#430000
0(
#431000
b0 1
b100111 0
b0 /
1.
1!
1-
1"
b1 2
1(
#432000
0(
#433000
b1 1
b0 2
b111 /
0.
0!
b100110 0
1(
#434000
0(
#435000
b0 1
b100101 0
b0 /
1.
1!
b1 2
1(
#436000
0(
#437000
b1 1
b0 2
b111 /
0.
0!
b100100 0
1(
#438000
0(
#439000
b0 1
b100011 0
b0 /
1.
1!
b1 2
1(
#440000
0(
#441000
b1 1
b0 2
b111 /
0.
0!
b100010 0
1(
#442000
0(
#443000
b0 1
b100001 0
b0 /
1.
1!
b1 2
1(
#444000
0(
#445000
b1 1
b0 2
b111 /
0.
0!
b100000 0
1(
#446000
0(
#447000
b0 1
b11111 0
b0 /
1.
1!
b1 2
1(
#448000
0(
#449000
b1 1
b0 2
b111 /
0.
0!
b11110 0
1(
#450000
0(
#451000
b0 1
b11101 0
b0 /
1.
1!
b1 2
1(
#452000
0(
#453000
b1 1
b0 2
b111 /
0.
0!
b11100 0
1(
#454000
0(
#455000
b0 1
b11011 0
b0 /
1.
1!
b1 2
1(
#456000
0(
#457000
b1 1
b0 2
b111 /
0.
0!
b11010 0
1(
#458000
0(
#459000
b0 1
b11001 0
b0 /
1.
1!
b1 2
1(
#460000
0(
#461000
b1 1
b0 2
b111 /
0.
0!
b11000 0
1(
#462000
0(
#463000
b0 1
b10111 0
b0 /
1.
1!
b1 2
1(
#464000
0(
#465000
b1 1
b0 2
b111 /
0.
0!
b10110 0
1(
#466000
0(
#467000
b0 1
b10101 0
b0 /
1.
1!
b1 2
1(
#468000
0(
#469000
b1 1
b0 2
b111 /
0.
0!
b10100 0
1(
#470000
0(
#471000
b0 1
b10011 0
b0 /
1.
1!
b1 2
1(
#472000
0(
#473000
b1 1
b0 2
b111 /
0.
0!
b10010 0
1(
#474000
0(
#475000
b0 1
b10001 0
b0 /
1.
1!
b1 2
1(
#476000
0(
#477000
b1 1
b0 2
b111 /
0.
0!
b10000 0
1(
#478000
0(
#479000
b0 1
b1111 0
b0 /
1.
1!
b1 2
1(
#480000
0(
#481000
b1 1
b0 2
b111 /
0.
0!
b1110 0
1(
#482000
0(
#483000
b0 1
b1101 0
b0 /
1.
1!
b1 2
1(
#484000
0(
#485000
b1 1
b0 2
b111 /
0.
0!
b1100 0
1(
#486000
0(
#487000
b0 1
b1011 0
b0 /
1.
1!
b1 2
1(
#488000
0(
#489000
b1 1
b0 2
b111 /
0.
0!
b1010 0
1(
#490000
0(
#491000
b0 1
b1001 0
b0 /
1.
1!
b1 2
1(
#492000
0(
#493000
b1 1
b0 2
b111 /
0.
0!
b1000 0
1(
#494000
0(
#495000
b0 1
b111 0
b0 /
1.
1!
b1 2
1(
#496000
0(
#497000
b1 1
b0 2
b111 /
0.
0!
b110 0
1(
#498000
0(
#499000
b0 1
b101 0
b0 /
1.
1!
b1 2
1(
#500000
0(
#501000
b1 1
b0 2
b111 /
0.
0!
b100 0
1(
#502000
0(
#503000
b0 1
b11 0
b0 /
1.
1!
b1 2
1(
#504000
0(
#505000
b1 1
b0 2
b111 /
0.
0!
b10 0
1(
#506000
0(
#507000
b0 1
b1 0
b0 /
1.
1!
b1 2
1(
#508000
0(
#509000
b1 1
b0 2
b111 /
0.
0!
b0 0
1(
#510000
0(
#511000
b10 1
b111110 0
b0 /
1.
1!
b1 2
1(
#512000
0(
#513000
b10 2
b111 /
0.
0!
b111101 0
1(
#514000
0(
#515000
0-
0"
b111100 0
1.
1!
b110 /
1(
#516000
0(
#517000
0.
0!
b111011 0
1-
1"
b101 /
1(
#518000
0(
#519000
0-
0"
b111010 0
1.
1!
b100 /
1(
#520000
0(
#521000
0.
0!
b111001 0
1-
1"
b11 /
1(
#522000
0(
#523000
0-
0"
b111000 0
1.
1!
b10 /
1(
#524000
0(
#525000
0.
0!
b110111 0
1-
1"
b1 /
1(
#526000
0(
#527000
0-
0"
b110110 0
1.
1!
b0 /
1(
#528000
0(
#529000
b110101 0
1-
1"
b1111 /
1(
#530000
0(
#531000
0-
0"
b110100 0
0.
0!
b1110 /
1(
#532000
0(
#533000
b110011 0
1-
1"
b1101 /
1(
#534000
0(
#535000
0-
0"
b110010 0
b1100 /
1(
#536000
0(
#537000
b110001 0
1-
1"
b1011 /
1(
#538000
0(
#539000
0-
0"
b110000 0
b1010 /
1(
#540000
0(
#541000
b101111 0
1-
1"
b1001 /
1(
#542000
0(
#543000
0-
0"
b101110 0
b1000 /
1(
#544000
0(
#545000
b101101 0
1-
1"
b111 /
1(
#546000
0(
#547000
0-
0"
b101100 0
1.
1!
b110 /
1(
#548000
0(
#549000
0.
0!
b101011 0
1-
1"
b101 /
1(
#550000
0(
#551000
b11 1
0-
0"
b101010 0
1.
1!
b100 /
1(
#552000
0(
#553000
b0 1
b11 2
0.
0!
b101001 0
1-
1"
b11 /
1(
#554000
0(
#555000
b1 1
0-
0"
b101000 0
b0 2
1(
#556000
0(
#557000
b0 1
b1 2
b0 /
1.
1!
b100111 0
1-
1"
1(
#558000
0(
#559000
b1 1
b100110 0
b111 /
0.
0!
b0 2
1(
#560000
0(
#561000
b0 1
b1 2
b0 /
1.
1!
b100101 0
1(
#562000
0(
#563000
b1 1
b100100 0
b111 /
0.
0!
b0 2
1(
#564000
0(
#565000
b0 1
b1 2
b0 /
1.
1!
b100011 0
1(
#566000
0(
#567000
b1 1
b100010 0
b111 /
0.
0!
b0 2
1(
#568000
0(
#569000
b0 1
b1 2
b0 /
1.
1!
b100001 0
1(
#570000
0(
#571000
b1 1
b100000 0
b111 /
0.
0!
b0 2
1(
#572000
0(
#573000
b0 1
b1 2
b0 /
1.
1!
b11111 0
1(
#574000
0(
#575000
b1 1
b11110 0
b111 /
0.
0!
b0 2
1(
#576000
0(
#577000
b0 1
b1 2
b0 /
1.
1!
b11101 0
1(
#578000
0(
#579000
b1 1
b11100 0
b111 /
0.
0!
b0 2
1(
#580000
0(
#581000
b0 1
b1 2
b0 /
1.
1!
b11011 0
1(
#582000
0(
#583000
b1 1
b11010 0
b111 /
0.
0!
b0 2
1(
#584000
0(
#585000
b0 1
b1 2
b0 /
1.
1!
b11001 0
1(
#586000
0(
#587000
b1 1
b11000 0
b111 /
0.
0!
b0 2
1(
#588000
0(
#589000
b0 1
b1 2
b0 /
1.
1!
b10111 0
1(
#590000
0(
#591000
b1 1
b10110 0
b111 /
0.
0!
b0 2
1(
#592000
0(
#593000
b0 1
b1 2
b0 /
1.
1!
b10101 0
1(
#594000
0(
#595000
b1 1
b10100 0
b111 /
0.
0!
b0 2
1(
#596000
0(
#597000
b0 1
b1 2
b0 /
1.
1!
b10011 0
1(
#598000
0(
#599000
b1 1
b10010 0
b111 /
0.
0!
b0 2
1(
#600000
0(
#601000
b0 1
b1 2
b0 /
1.
1!
b10001 0
1(
#602000
0(
#603000
b1 1
b10000 0
b111 /
0.
0!
b0 2
1(
#604000
0(
#605000
b0 1
b1 2
b0 /
1.
1!
b1111 0
1(
#606000
0(
#607000
b1 1
b1110 0
b111 /
0.
0!
b0 2
1(
#608000
0(
#609000
b0 1
b1 2
b0 /
1.
1!
b1101 0
1(
#610000
0(
#611000
b1 1
b1100 0
b111 /
0.
0!
b0 2
1(
#612000
0(
#613000
b0 1
b1 2
b0 /
1.
1!
b1011 0
1(
#614000
0(
#615000
b1 1
b1010 0
b111 /
0.
0!
b0 2
1(
#616000
0(
#617000
b0 1
b1 2
b0 /
1.
1!
b1001 0
1(
#618000
0(
#619000
b1 1
b1000 0
b111 /
0.
0!
b0 2
1(
#620000
0(
#621000
b0 1
b1 2
b0 /
1.
1!
b111 0
1(
#622000
0(
#623000
b1 1
b110 0
b111 /
0.
0!
b0 2
1(
#624000
0(
#625000
b0 1
b1 2
b0 /
1.
1!
b101 0
1(
#626000
0(
#627000
b1 1
b100 0
b111 /
0.
0!
b0 2
1(
#628000
0(
#629000
b0 1
b1 2
b0 /
1.
1!
b11 0
1(
#630000
0(
#631000
b1 1
b10 0
b111 /
0.
0!
b0 2
1(
#632000
0(
#633000
b0 1
b1 2
b0 /
1.
1!
b1 0
1(
#634000
0(
#635000
b1 1
b0 0
b111 /
0.
0!
b0 2
1(
#636000
0(
#637000
b10 1
b1 2
b0 /
1.
1!
b111110 0
1(
#638000
0(
#639000
b111101 0
b111 /
0.
0!
b10 2
1(
#640000
0(
#641000
1.
1!
b111100 0
0-
0"
b110 /
1(
#642000
0(
#643000
1-
1"
b111011 0
0.
0!
b101 /
1(
#644000
0(
#645000
1.
1!
b111010 0
0-
0"
b100 /
1(
#646000
0(
#647000
1-
1"
b111001 0
0.
0!
b11 /
1(
#648000
0(
#649000
1.
1!
b111000 0
0-
0"
b10 /
1(
#650000
0(
#651000
1-
1"
b110111 0
0.
0!
b1 /
1(
#652000
0(
#653000
1.
1!
b110110 0
0-
0"
b0 /
1(
#654000
0(
#655000
1-
1"
b110101 0
b1111 /
1(
#656000
0(
#657000
0.
0!
b110100 0
0-
0"
b1110 /
1(
#658000
0(
#659000
1-
1"
b110011 0
b1101 /
1(
#660000
0(
#661000
b110010 0
0-
0"
b1100 /
1(
#662000
0(
#663000
1-
1"
b110001 0
b1011 /
1(
#664000
0(
#665000
b110000 0
0-
0"
b1010 /
1(
#666000
0(
#667000
1-
1"
b101111 0
b1001 /
1(
#668000
0(
#669000
b101110 0
0-
0"
b1000 /
1(
#670000
0(
#671000
1-
1"
b101101 0
b111 /
1(
#672000
0(
#673000
1.
1!
b101100 0
0-
0"
b110 /
1(
#674000
0(
#675000
1-
1"
b101011 0
0.
0!
b101 /
1(
#676000
0(
#677000
b11 1
1.
1!
b101010 0
0-
0"
b100 /
1(
#678000
0(
#679000
b0 1
1-
1"
b101001 0
0.
0!
b11 2
b11 /
1(
#680000
0(
#681000
b1 1
b0 2
b101000 0
0-
0"
1(
#682000
0(
#683000
b0 1
b100111 0
b0 /
1.
1!
1-
1"
b1 2
1(
#684000
0(
#685000
b1 1
b0 2
b111 /
0.
0!
b100110 0
1(
#686000
0(
#687000
b0 1
b100101 0
b0 /
1.
1!
b1 2
1(
#688000
0(
#689000
b1 1
b0 2
b111 /
0.
0!
b100100 0
1(
#690000
0(
#691000
b0 1
b100011 0
b0 /
1.
1!
b1 2
1(
#692000
0(
#693000
b1 1
b0 2
b111 /
0.
0!
b100010 0
1(
#694000
0(
#695000
b0 1
b100001 0
b0 /
1.
1!
b1 2
1(
#696000
0(
#697000
b1 1
b0 2
b111 /
0.
0!
b100000 0
1(
#698000
0(
#699000
b0 1
b11111 0
b0 /
1.
1!
b1 2
1(
#700000
0(
#701000
b1 1
b0 2
b111 /
0.
0!
b11110 0
1(
#702000
0(
#703000
b0 1
b11101 0
b0 /
1.
1!
b1 2
1(
#704000
0(
#705000
b1 1
b0 2
b111 /
0.
0!
b11100 0
1(
#706000
0(
#707000
b0 1
b11011 0
b0 /
1.
1!
b1 2
1(
#708000
0(
#709000
b1 1
b0 2
b111 /
0.
0!
b11010 0
1(
#710000
0(
#711000
b0 1
b11001 0
b0 /
1.
1!
b1 2
1(
#712000
0(
#713000
b1 1
b0 2
b111 /
0.
0!
b11000 0
1(
#714000
0(
#715000
b0 1
b10111 0
b0 /
1.
1!
b1 2
1(
#716000
0(
#717000
b1 1
b0 2
b111 /
0.
0!
b10110 0
1(
#718000
0(
#719000
b0 1
b10101 0
b0 /
1.
1!
b1 2
1(
#720000
0(
#721000
b1 1
b0 2
b111 /
0.
0!
b10100 0
1(
#722000
0(
#723000
b0 1
b10011 0
b0 /
1.
1!
b1 2
1(
#724000
0(
#725000
b1 1
b0 2
b111 /
0.
0!
b10010 0
1(
#726000
0(
#727000
b0 1
b10001 0
b0 /
1.
1!
b1 2
1(
#728000
0(
#729000
b1 1
b0 2
b111 /
0.
0!
b10000 0
1(
#730000
0(
#731000
b0 1
b1111 0
b0 /
1.
1!
b1 2
1(
#732000
0(
#733000
b1 1
b0 2
b111 /
0.
0!
b1110 0
1(
#734000
0(
#735000
b0 1
b1101 0
b0 /
1.
1!
b1 2
1(
#736000
0(
#737000
b1 1
b0 2
b111 /
0.
0!
b1100 0
1(
#738000
0(
